{
    "modules": [
        {
            "config": {
                "position": [
                    116,
                    100
                ]
            },
            "name": "New Model Object",
            "value": {
                "actionGroup": {
                    "_default0_list": false,
                    "_default1_show": false,
                    "_default2_new_create": false,
                    "_default3_edit_update": false,
                    "_default4_delete": false,
                    "customActions": [
                        "httpAcceptLanguage"
                    ]
                },
                "name": "HttpAcceptLanguage",
                "objectsettings": {
                    "addDeletedField": true,
                    "addHiddenField": true,
                    "addStarttimeEndtimeFields": true,
                    "aggregateRoot": true,
                    "categorizable": false,
                    "description": "",
                    "mapToTable": "",
                    "parentClass": "",
                    "sorting": true,
                    "type": "Entity",
                    "uid": "426861192105"
                },
                "propertyGroup": {
                    "properties": [
                        {
                            "allowedFileTypes": "",
                            "maxItems": "1",
                            "propertyDescription": "",
                            "propertyIsExcludeField": false,
                            "propertyIsRequired": true,
                            "propertyName": "backendTitle",
                            "propertyType": "String",
                            "uid": "994174711042"
                        },
                        {
                            "allowedFileTypes": "",
                            "maxItems": "1",
                            "propertyDescription": "",
                            "propertyIsExcludeField": false,
                            "propertyIsRequired": true,
                            "propertyName": "title",
                            "propertyType": "String",
                            "uid": "1330244468218"
                        },
                        {
                            "allowedFileTypes": "",
                            "maxItems": "1",
                            "propertyDescription": "",
                            "propertyIsExcludeField": false,
                            "propertyIsRequired": true,
                            "propertyName": "target",
                            "propertyType": "String",
                            "uid": "325825059825"
                        },
                        {
                            "allowedFileTypes": "",
                            "maxItems": "1",
                            "propertyDescription": "",
                            "propertyIsExcludeField": false,
                            "propertyIsRequired": true,
                            "propertyName": "sysLangUid",
                            "propertyType": "Integer",
                            "uid": "1053162463991"
                        },
                        {
                            "allowedFileTypes": "",
                            "maxItems": "1",
                            "propertyDescription": "",
                            "propertyIsExcludeField": false,
                            "propertyIsRequired": true,
                            "propertyName": "info",
                            "propertyType": "RichText",
                            "uid": "968182824143"
                        },
                        {
                            "allowedFileTypes": "",
                            "maxItems": "1",
                            "propertyDescription": "",
                            "propertyIsExcludeField": false,
                            "propertyIsRequired": true,
                            "propertyName": "labelSwitch",
                            "propertyType": "String",
                            "uid": "799911997430"
                        },
                        {
                            "allowedFileTypes": "",
                            "maxItems": "1",
                            "propertyDescription": "",
                            "propertyIsExcludeField": false,
                            "propertyIsRequired": true,
                            "propertyName": "labelDismiss",
                            "propertyType": "String",
                            "uid": "535589214383"
                        }
                    ]
                },
                "relationGroup": {
                    "relations": []
                }
            }
        },
        {
            "config": {
                "position": [
                    381,
                    100
                ]
            },
            "name": "New Model Object",
            "value": {
                "actionGroup": {
                    "_default0_list": false,
                    "_default1_show": false,
                    "_default2_new_create": false,
                    "_default3_edit_update": false,
                    "_default4_delete": false,
                    "customActions": [
                        "ipToNation"
                    ]
                },
                "name": "IpToNation",
                "objectsettings": {
                    "addDeletedField": true,
                    "addHiddenField": true,
                    "addStarttimeEndtimeFields": true,
                    "aggregateRoot": true,
                    "categorizable": false,
                    "description": "",
                    "mapToTable": "",
                    "parentClass": "",
                    "sorting": true,
                    "type": "Entity",
                    "uid": "696675714936"
                },
                "propertyGroup": {
                    "properties": [
                        {
                            "allowedFileTypes": "",
                            "maxItems": "1",
                            "propertyDescription": "",
                            "propertyIsExcludeField": false,
                            "propertyIsRequired": true,
                            "propertyName": "backendTitle",
                            "propertyType": "String",
                            "uid": "1247301698661"
                        },
                        {
                            "allowedFileTypes": "",
                            "maxItems": "1",
                            "propertyDescription": "",
                            "propertyIsExcludeField": false,
                            "propertyIsRequired": true,
                            "propertyName": "title",
                            "propertyType": "String",
                            "uid": "669291785674"
                        },
                        {
                            "allowedFileTypes": "",
                            "maxItems": "1",
                            "propertyDescription": "",
                            "propertyIsExcludeField": false,
                            "propertyIsRequired": true,
                            "propertyName": "target",
                            "propertyType": "String",
                            "uid": "1378161489095"
                        },
                        {
                            "allowedFileTypes": "",
                            "maxItems": "1",
                            "propertyDescription": "",
                            "propertyIsExcludeField": false,
                            "propertyIsRequired": true,
                            "propertyName": "sysLangUid",
                            "propertyType": "Integer",
                            "uid": "700787796125"
                        },
                        {
                            "allowedFileTypes": "",
                            "maxItems": "1",
                            "propertyDescription": "",
                            "propertyIsExcludeField": false,
                            "propertyIsRequired": true,
                            "propertyName": "info",
                            "propertyType": "Text",
                            "uid": "383650597862"
                        },
                        {
                            "allowedFileTypes": "",
                            "maxItems": "1",
                            "propertyDescription": "",
                            "propertyIsExcludeField": false,
                            "propertyIsRequired": true,
                            "propertyName": "labelLang",
                            "propertyType": "String",
                            "uid": "980214581412"
                        },
                        {
                            "allowedFileTypes": "",
                            "maxItems": "1",
                            "propertyDescription": "",
                            "propertyIsExcludeField": false,
                            "propertyIsRequired": true,
                            "propertyName": "labelSwitch",
                            "propertyType": "String",
                            "uid": "1421991746644"
                        },
                        {
                            "allowedFileTypes": "",
                            "maxItems": "1",
                            "propertyDescription": "",
                            "propertyIsExcludeField": false,
                            "propertyIsRequired": true,
                            "propertyName": "labelDismiss",
                            "propertyType": "String",
                            "uid": "262066279263"
                        }
                    ]
                },
                "relationGroup": {
                    "relations": []
                }
            }
        },
        {
            "config": {
                "position": [
                    662,
                    100
                ]
            },
            "name": "New Model Object",
            "value": {
                "actionGroup": {
                    "_default0_list": false,
                    "_default1_show": false,
                    "_default2_new_create": false,
                    "_default3_edit_update": false,
                    "_default4_delete": false,
                    "customActions": [
                        "geoLite"
                    ]
                },
                "name": "GeoLite",
                "objectsettings": {
                    "addDeletedField": true,
                    "addHiddenField": true,
                    "addStarttimeEndtimeFields": true,
                    "aggregateRoot": true,
                    "categorizable": false,
                    "description": "",
                    "mapToTable": "",
                    "parentClass": "",
                    "sorting": true,
                    "type": "Entity",
                    "uid": "1442311828981"
                },
                "propertyGroup": {
                    "properties": [
                        {
                            "allowedFileTypes": "",
                            "maxItems": "1",
                            "propertyDescription": "",
                            "propertyIsExcludeField": false,
                            "propertyIsRequired": true,
                            "propertyName": "backendTitle",
                            "propertyType": "String",
                            "uid": "807804789371"
                        },
                        {
                            "allowedFileTypes": "",
                            "maxItems": "1",
                            "propertyDescription": "",
                            "propertyIsExcludeField": false,
                            "propertyIsRequired": true,
                            "propertyName": "title",
                            "propertyType": "String",
                            "uid": "58376944024"
                        },
                        {
                            "allowedFileTypes": "",
                            "maxItems": "1",
                            "propertyDescription": "",
                            "propertyIsExcludeField": false,
                            "propertyIsRequired": true,
                            "propertyName": "target",
                            "propertyType": "String",
                            "uid": "1683673449"
                        },
                        {
                            "allowedFileTypes": "",
                            "maxItems": "1",
                            "propertyDescription": "",
                            "propertyIsExcludeField": false,
                            "propertyIsRequired": true,
                            "propertyName": "sysLangUid",
                            "propertyType": "Integer",
                            "uid": "1265161648402"
                        },
                        {
                            "allowedFileTypes": "",
                            "maxItems": "1",
                            "propertyDescription": "",
                            "propertyIsExcludeField": false,
                            "propertyIsRequired": true,
                            "propertyName": "info",
                            "propertyType": "Text",
                            "uid": "181659506852"
                        },
                        {
                            "allowedFileTypes": "",
                            "maxItems": "1",
                            "propertyDescription": "",
                            "propertyIsExcludeField": false,
                            "propertyIsRequired": true,
                            "propertyName": "labelLang",
                            "propertyType": "String",
                            "uid": "644360804390"
                        },
                        {
                            "allowedFileTypes": "",
                            "maxItems": "1",
                            "propertyDescription": "",
                            "propertyIsExcludeField": false,
                            "propertyIsRequired": true,
                            "propertyName": "labelSwitch",
                            "propertyType": "String",
                            "uid": "1324625976204"
                        },
                        {
                            "allowedFileTypes": "",
                            "maxItems": "1",
                            "propertyDescription": "",
                            "propertyIsExcludeField": false,
                            "propertyIsRequired": true,
                            "propertyName": "labelDismiss",
                            "propertyType": "String",
                            "uid": "52027352640"
                        }
                    ]
                },
                "relationGroup": {
                    "relations": []
                }
            }
        }
    ],
    "properties": {
        "backendModules": [],
        "description": "",
        "emConf": {
            "category": "plugin",
            "custom_category": "",
            "dependsOn": "typo3 => 7.6.0-0.0.0",
            "disableLocalization": false,
            "disableVersioning": false,
            "skipGenerateDocumentationTemplate": false,
            "sourceLanguage": "en",
            "state": "stable",
            "targetVersion": "8.7.0-8.7.99",
            "version": "8.7.0"
        },
        "extensionKey": "teufels_ext_language_detection",
        "name": "teufels_ext_language_detection",
        "originalExtensionKey": "teufels_ext_language_detection",
        "originalVendorName": "TEUFELS",
        "persons": [],
        "plugins": [
            {
                "actions": {
                    "controllerActionCombinations": "HttpAcceptLanguage => httpAcceptLanguage",
                    "noncacheableActions": "HttpAcceptLanguage => httpAcceptLanguage",
                    "switchableActions": ""
                },
                "key": "teufelsextlanguagedetectionhttpacceptlanguage",
                "name": "teufels_ext_language_detection :: httpAcceptLanguage"
            },
            {
                "actions": {
                    "controllerActionCombinations": "IpToNation => ipToNation",
                    "noncacheableActions": "IpToNation => ipToNation",
                    "switchableActions": ""
                },
                "key": "teufelsextlanguagedetectioniptonation",
                "name": "teufels_ext_language_detection :: "
            },
            {
                "actions": {
                    "controllerActionCombinations": "GeoLite => geoLite",
                    "noncacheableActions": "GeoLite => geoLite",
                    "switchableActions": ""
                },
                "key": "teufelsextlanguagedetectiongeolite",
                "name": "teufels_ext_language_detection :: GeoLite :: geoLite"
            }
        ],
        "vendorName": "TEUFELS"
    },
    "wires": [],
    "log": {
        "last_modified": "2018-03-05 11:21",
        "extension_builder_version": "8.7.0",
        "be_user": "dominho (4)"
    }
}